{
  "project_info": {
    "project_number": "968495550005",
    "firebase_url": "https://brunch-bites.firebaseio.com",
    "project_id": "brunch-bites",
    "storage_bucket": "brunch-bites.appspot.com"
  },
  "client": [
    {
      "client_info": {
        "mobilesdk_app_id": "1:968495550005:android:404ff04a20ab506cb32b7c",
        "android_client_info": {
          "package_name": "com.fabcoders.brunchbites"
        }
      },
      "oauth_client": [
        {
          "client_id": "968495550005-rneu5eam1ajubk4vq1btaoct5fhoradv.apps.googleusercontent.com",
          "client_type": 3
        }
      ],
      "api_key": [
        {
          "current_key": "AIzaSyCaj8FlAYboh1iwk63f67dqqYewzye3zgE"
        }
      ],
      "services": {
        "appinvite_service": {
          "other_platform_oauth_client": [
            {
              "client_id": "968495550005-rneu5eam1ajubk4vq1btaoct5fhoradv.apps.googleusercontent.com",
              "client_type": 3
            }
          ]
        }
      }
    }
  ],
  "configuration_version": "1"
}